,Time,node1,node10,node100,node11,node12,node13,node14,node15,node16,node17,node18,node19,node2,node20,node21,node22,node23,node24,node25,node26,node27,node28,node29,node3,node30,node31,node32,node33,node34,node35,node36,node37,node38,node39,node4,node40,node41,node42,node43,node44,node45,node46,node47,node48,node49,node5,node50,node51,node52,node53,node54,node55,node56,node57,node58,node59,node6,node60,node61,node62,node63,node64,node65,node66,node67,node68,node69,node7,node70,node71,node72,node73,node74,node75,node76,node77,node78,node79,node8,node80,node81,node82,node83,node84,node85,node86,node87,node88,node89,node9,node90,node91,node92,node93,node94,node95,node96,node97,node98,node99
0,0,2,0,1,1,4,5,5,2,0,0,5,0,0,4,4,1,0,3,1,2,5,7,3,4,0,5,0,0,1,1,4,2,5,1,0,3,6,9,6,4,0,3,7,5,6,11,1,3,0,1,0,1,4,1,0,1,0,0,0,2,3,1,3,3,3,2,1,0,0,2,1,5,2,3,1,1,2,4,4,5,3,1,1,2,2,3,1,0,4,2,5,6,0,0,0,0,2,3,6,0
1,1,2,0,2,0,3,2,4,1,0,0,2,0,0,2,2,1,1,0,0,1,3,2,1,1,1,0,0,0,1,2,2,1,0,0,0,2,8,2,5,2,0,4,3,2,3,8,0,2,0,0,0,4,3,1,0,1,0,1,1,4,3,3,2,1,0,1,1,0,0,2,1,2,4,2,1,1,2,1,3,0,0,0,1,1,1,3,1,1,2,2,2,3,0,0,0,0,1,1,8,0
2,2,0,0,0,0,3,2,3,1,0,0,1,0,0,2,1,2,0,0,0,0,2,2,1,0,0,3,0,0,1,2,1,2,1,1,0,1,4,3,1,0,1,3,1,1,2,1,0,2,0,0,0,2,0,1,0,1,0,1,1,2,1,1,3,1,1,2,1,0,0,2,1,2,2,2,1,1,0,0,0,1,0,0,1,1,2,1,2,1,1,2,1,2,0,0,0,0,0,1,4,0
3,3,0,0,0,0,3,4,4,0,0,0,2,0,1,2,4,0,3,0,0,0,1,1,2,2,0,1,0,1,2,3,0,1,1,0,0,1,4,1,1,1,1,5,2,0,1,1,0,0,1,0,1,3,4,1,0,2,0,2,0,2,1,0,1,3,1,1,0,0,0,1,0,4,2,0,2,2,0,2,4,1,0,0,1,0,1,1,0,2,4,1,2,1,0,0,1,1,0,2,4,0
4,4,0,0,1,0,3,0,0,1,0,0,0,1,0,2,2,0,0,1,1,2,2,1,1,1,1,0,0,0,1,0,0,1,0,0,0,1,3,3,2,2,1,2,3,2,1,3,0,0,0,0,0,1,1,1,0,1,0,1,0,2,3,1,3,2,0,2,1,0,0,2,1,0,2,0,1,1,0,1,1,0,1,1,1,1,1,3,0,1,2,2,0,1,1,0,0,0,2,1,3,0
5,5,0,0,2,1,4,2,4,4,0,2,2,0,0,1,1,3,0,2,0,2,2,4,1,1,2,1,0,2,0,0,1,1,2,0,1,1,9,7,3,2,0,1,2,5,2,6,1,2,2,0,0,0,1,0,0,3,0,0,2,2,4,1,6,2,0,1,1,0,0,2,1,2,2,2,3,0,0,1,1,2,2,0,0,4,1,4,3,0,1,2,2,2,0,0,0,2,2,1,9,0
6,6,2,0,2,0,4,8,4,6,0,1,4,1,0,5,10,7,1,5,2,2,3,4,5,7,1,6,0,1,5,3,3,3,4,2,0,5,9,9,3,5,0,6,4,6,4,6,1,2,4,2,1,5,5,1,0,3,1,0,3,5,7,3,11,10,2,1,4,0,1,1,4,8,5,2,3,5,2,7,5,4,5,2,1,6,3,7,7,0,10,1,4,4,1,0,0,1,2,5,9,1
7,7,8,4,6,9,9,18,11,4,0,5,8,9,2,9,12,13,7,8,5,5,8,10,10,12,5,8,3,3,13,11,10,9,7,5,3,9,12,9,8,9,6,18,10,5,12,12,4,6,7,3,2,15,10,2,5,10,1,8,6,10,9,9,15,16,6,9,7,3,5,9,7,18,10,6,10,13,8,12,10,7,8,5,2,4,9,9,13,8,12,9,8,12,9,4,2,3,5,10,12,1
8,8,10,6,11,7,19,17,23,6,1,11,12,10,5,11,19,16,12,12,7,8,14,11,9,14,8,10,3,7,10,12,14,10,9,9,5,8,15,18,12,12,7,19,13,10,11,16,7,8,12,6,5,19,21,8,6,8,6,13,10,12,16,16,23,22,9,10,11,7,2,10,11,17,12,8,8,10,10,14,21,9,12,7,8,6,10,16,16,13,19,10,12,11,10,6,5,7,8,9,15,6
9,9,7,6,9,10,23,27,24,10,2,11,21,16,7,13,22,18,12,11,11,9,12,11,13,17,7,19,2,8,10,14,9,12,8,6,4,14,26,17,7,12,8,19,11,14,13,15,9,11,10,6,8,18,20,9,7,11,4,15,7,10,12,12,32,24,13,12,11,5,8,13,11,27,10,11,11,10,7,17,20,8,11,11,9,10,12,12,18,15,22,13,21,13,16,6,7,8,9,13,26,4
10,10,13,9,8,11,23,29,21,8,1,11,15,10,5,9,20,20,9,10,7,9,13,16,15,18,8,15,3,7,9,17,14,10,13,9,4,9,30,22,10,13,8,21,13,12,12,16,6,10,15,8,5,22,13,6,6,12,2,7,11,14,15,13,18,20,13,7,12,5,3,9,12,29,14,10,12,9,13,18,13,13,10,7,6,8,10,15,20,7,20,9,15,12,10,9,5,7,9,15,30,2
11,11,13,6,19,9,25,17,13,11,1,7,9,10,6,12,20,21,14,12,8,9,9,11,16,18,11,19,2,9,9,21,17,11,14,8,5,10,37,26,12,10,9,28,9,8,10,19,7,9,15,7,6,25,19,6,6,12,4,13,9,15,11,22,18,21,12,10,9,7,6,12,9,17,15,9,12,9,13,18,19,14,12,8,6,11,11,11,21,13,20,12,9,10,10,6,6,9,9,16,37,4
12,12,11,7,12,8,25,21,20,7,1,11,19,15,10,17,19,23,9,13,8,11,14,14,15,19,8,16,5,7,13,17,9,10,15,7,5,9,34,33,14,8,12,27,12,10,17,23,6,12,15,6,10,25,22,10,6,18,5,12,8,17,12,16,21,23,14,9,14,3,7,10,14,21,17,12,18,13,11,19,22,15,13,8,10,7,10,12,23,12,19,10,19,17,15,7,10,7,11,15,34,5
13,13,8,7,14,9,30,19,17,9,1,14,13,6,8,13,20,16,12,13,9,13,18,10,13,14,13,10,4,8,11,20,13,15,11,7,5,9,28,22,10,9,7,21,11,14,15,16,7,9,13,7,5,24,23,8,7,10,5,15,12,17,12,12,28,23,8,11,15,3,3,16,15,19,17,9,10,11,8,14,23,11,13,9,8,9,15,12,16,15,20,16,13,15,6,7,8,8,13,13,28,5
14,14,8,5,12,8,21,19,22,11,3,10,19,8,9,9,20,17,10,14,10,8,11,9,15,17,10,12,3,5,8,13,19,9,12,9,6,10,32,19,13,11,8,16,8,10,9,20,5,9,10,9,7,16,12,9,6,8,7,10,14,17,15,17,16,24,9,10,12,5,1,13,12,19,17,9,8,8,8,17,12,12,14,10,9,11,9,15,17,10,20,13,19,9,8,5,9,5,8,15,32,7
15,15,9,7,15,11,28,28,25,12,3,9,18,7,6,17,19,18,15,9,8,8,12,16,12,18,10,12,4,6,15,13,14,6,13,8,3,8,28,27,8,8,11,20,16,15,13,13,7,8,10,7,6,15,12,9,7,12,2,11,6,17,9,28,21,17,11,10,13,8,4,13,13,28,17,8,12,15,9,18,12,13,9,8,9,12,6,9,18,11,19,13,18,13,7,7,6,6,8,12,28,2
16,16,10,6,9,8,22,22,25,10,1,10,15,9,8,11,23,21,12,14,11,7,12,12,14,21,8,11,4,7,8,16,11,10,13,6,5,10,26,24,16,12,7,18,13,13,10,24,6,6,11,6,4,18,13,8,5,10,3,7,7,13,16,23,19,18,8,10,11,7,3,12,11,22,13,6,10,8,10,21,13,13,14,11,8,10,10,16,21,7,23,12,15,10,9,6,8,7,7,14,26,3
17,17,13,7,11,7,25,26,26,13,1,8,18,9,7,13,15,26,9,14,13,11,18,19,12,17,9,14,5,6,11,12,10,13,8,10,3,12,40,28,8,11,10,16,12,12,18,24,6,14,9,9,7,19,22,9,5,13,6,9,7,14,11,14,25,26,13,10,8,3,8,12,8,26,14,14,13,11,13,17,22,8,14,13,9,13,13,11,26,9,15,12,18,18,9,7,7,6,11,12,40,6
18,18,12,4,17,10,24,29,21,7,0,3,21,8,3,28,22,30,14,19,7,12,16,15,15,28,11,14,0,8,9,26,13,14,14,8,5,9,37,23,13,12,7,24,15,13,16,22,5,9,10,7,4,38,26,5,5,13,2,14,6,10,12,15,25,27,6,11,12,2,2,17,12,29,10,9,13,9,12,28,26,14,19,7,5,7,14,12,30,14,22,17,21,16,8,4,3,8,12,15,37,2
19,19,8,6,9,9,23,24,23,7,0,9,15,12,6,12,19,20,11,18,11,12,14,17,15,20,10,14,5,7,17,12,10,12,10,10,5,15,35,25,18,12,7,19,15,7,20,25,6,11,8,7,6,20,17,8,4,12,4,11,8,19,17,24,30,29,12,8,17,4,5,12,17,24,19,11,12,17,8,20,17,10,18,11,8,7,12,17,20,11,19,12,15,20,12,6,6,7,12,15,35,4
20,20,7,6,12,7,24,20,21,8,1,10,17,9,3,18,13,15,12,8,7,11,11,14,9,15,7,11,4,7,12,29,12,15,10,7,6,12,29,19,12,8,7,32,13,10,13,16,3,9,10,6,3,34,19,5,5,7,1,13,7,15,11,15,20,17,9,11,16,3,1,14,16,20,15,9,7,12,7,15,19,10,8,7,5,8,15,11,15,13,13,14,17,13,9,6,3,7,11,9,29,1
21,21,7,5,8,8,10,21,15,6,1,11,9,9,2,9,12,17,14,15,3,5,10,10,7,15,6,11,1,10,15,11,11,9,10,7,2,11,30,11,11,8,7,17,10,13,14,11,7,7,6,6,7,16,22,7,5,7,0,18,7,17,12,15,13,19,8,8,11,3,3,8,11,21,17,7,7,15,7,15,22,10,15,3,7,6,9,12,17,18,12,8,9,14,9,5,2,10,5,7,30,0
22,22,4,4,6,5,17,19,17,4,0,6,12,7,1,12,15,9,11,10,5,8,8,9,9,14,6,10,3,2,15,10,7,9,7,7,4,9,21,12,11,5,4,11,8,5,13,15,4,7,6,6,2,10,11,4,4,6,2,10,6,9,7,9,10,17,6,7,9,1,2,7,9,19,9,7,6,15,4,14,11,7,10,5,4,4,9,7,9,10,15,7,12,13,7,4,1,2,8,9,21,2
23,23,4,2,5,1,6,5,9,5,0,2,10,3,0,6,8,5,10,3,3,5,7,7,8,7,3,4,4,2,7,3,5,4,4,10,1,3,15,8,4,4,1,8,6,4,9,8,2,5,3,6,0,4,9,0,1,4,1,8,2,7,6,5,7,7,2,5,7,1,0,5,7,5,7,5,4,7,4,7,9,4,3,3,0,5,4,6,5,8,8,5,10,9,3,2,0,2,5,8,15,1
24,0,2,0,1,1,4,5,5,2,0,0,5,0,0,4,4,1,0,3,1,2,5,7,3,4,0,5,0,0,1,1,4,2,5,1,0,3,6,9,6,4,0,3,7,5,6,11,1,3,0,1,0,1,4,1,0,1,0,0,0,2,3,1,3,3,3,2,1,0,0,2,1,5,2,3,1,1,2,4,4,5,3,1,1,2,2,3,1,0,4,2,5,6,0,0,0,0,2,3,6,0
25,1,2,0,2,0,3,2,4,1,0,0,2,0,0,2,2,1,1,0,0,1,3,2,1,1,1,0,0,0,1,2,2,1,0,0,0,2,8,2,5,2,0,4,3,2,3,8,0,2,0,0,0,4,3,1,0,1,0,1,1,4,3,3,2,1,0,1,1,0,0,2,1,2,4,2,1,1,2,1,3,0,0,0,1,1,1,3,1,1,2,2,2,3,0,0,0,0,1,1,8,0
26,2,0,0,0,0,3,2,3,1,0,0,1,0,0,2,1,2,0,0,0,0,2,2,1,0,0,3,0,0,1,2,1,2,1,1,0,1,4,3,1,0,1,3,1,1,2,1,0,2,0,0,0,2,0,1,0,1,0,1,1,2,1,1,3,1,1,2,1,0,0,2,1,2,2,2,1,1,0,0,0,1,0,0,1,1,2,1,2,1,1,2,1,2,0,0,0,0,0,1,4,0
27,3,0,0,0,0,3,4,4,0,0,0,2,0,1,2,4,0,3,0,0,0,1,1,2,2,0,1,0,1,2,3,0,1,1,0,0,1,4,1,1,1,1,5,2,0,1,1,0,0,1,0,1,3,4,1,0,2,0,2,0,2,1,0,1,3,1,1,0,0,0,1,0,4,2,0,2,2,0,2,4,1,0,0,1,0,1,1,0,2,4,1,2,1,0,0,1,1,0,2,4,0
28,4,0,0,1,0,3,0,0,1,0,0,0,1,0,2,2,0,0,1,1,2,2,1,1,1,1,0,0,0,1,0,0,1,0,0,0,1,3,3,2,2,1,2,3,2,1,3,0,0,0,0,0,1,1,1,0,1,0,1,0,2,3,1,3,2,0,2,1,0,0,2,1,0,2,0,1,1,0,1,1,0,1,1,1,1,1,3,0,1,2,2,0,1,1,0,0,0,2,1,3,0
29,5,0,0,2,1,4,2,4,4,0,2,2,0,0,1,1,3,0,2,0,2,2,4,1,1,2,1,0,2,0,0,1,1,2,0,1,1,9,7,3,2,0,1,2,5,2,6,1,2,2,0,0,0,1,0,0,3,0,0,2,2,4,1,6,2,0,1,1,0,0,2,1,2,2,2,3,0,0,1,1,2,2,0,0,4,1,4,3,0,1,2,2,2,0,0,0,2,2,1,9,0
30,6,2,0,2,0,4,8,4,6,0,1,4,1,0,5,10,7,1,5,2,2,3,4,5,7,1,6,0,1,5,3,3,3,4,2,0,5,9,9,3,5,0,6,4,6,4,6,1,2,4,2,1,5,5,1,0,3,1,0,3,5,7,3,11,10,2,1,4,0,1,1,4,8,5,2,3,5,2,7,5,4,5,2,1,6,3,7,7,0,10,1,4,4,1,0,0,1,2,5,9,1
31,7,8,4,6,9,9,18,11,4,0,5,8,9,2,9,12,13,7,8,5,5,8,10,10,12,5,8,3,3,13,11,10,9,7,5,3,9,12,9,8,9,6,18,10,5,12,12,4,6,7,3,2,15,10,2,5,10,1,8,6,10,9,9,15,16,6,9,7,3,5,9,7,18,10,6,10,13,8,12,10,7,8,5,2,4,9,9,13,8,12,9,8,12,9,4,2,3,5,10,12,1
32,8,10,6,11,7,19,17,23,6,1,11,12,10,5,11,19,16,12,12,7,8,14,11,9,14,8,10,3,7,10,12,14,10,9,9,5,8,15,18,12,12,7,19,13,10,11,16,7,8,12,6,5,19,21,8,6,8,6,13,10,12,16,16,23,22,9,10,11,7,2,10,11,17,12,8,8,10,10,14,21,9,12,7,8,6,10,16,16,13,19,10,12,11,10,6,5,7,8,9,15,6
33,9,7,6,9,10,23,27,24,10,2,11,21,16,7,13,22,18,12,11,11,9,12,11,13,17,7,19,2,8,10,14,9,12,8,6,4,14,26,17,7,12,8,19,11,14,13,15,9,11,10,6,8,18,20,9,7,11,4,15,7,10,12,12,32,24,13,12,11,5,8,13,11,27,10,11,11,10,7,17,20,8,11,11,9,10,12,12,18,15,22,13,21,13,16,6,7,8,9,13,26,4
34,10,13,9,8,11,23,29,21,8,1,11,15,10,5,9,20,20,9,10,7,9,13,16,15,18,8,15,3,7,9,17,14,10,13,9,4,9,30,22,10,13,8,21,13,12,12,16,6,10,15,8,5,22,13,6,6,12,2,7,11,14,15,13,18,20,13,7,12,5,3,9,12,29,14,10,12,9,13,18,13,13,10,7,6,8,10,15,20,7,20,9,15,12,10,9,5,7,9,15,30,2
35,11,13,6,19,9,25,17,13,11,1,7,9,10,6,12,20,21,14,12,8,9,9,11,16,18,11,19,2,9,9,21,17,11,14,8,5,10,37,26,12,10,9,28,9,8,10,19,7,9,15,7,6,25,19,6,6,12,4,13,9,15,11,22,18,21,12,10,9,7,6,12,9,17,15,9,12,9,13,18,19,14,12,8,6,11,11,11,21,13,20,12,9,10,10,6,6,9,9,16,37,4
36,12,11,7,12,8,25,21,20,7,1,11,19,15,10,17,19,23,9,13,8,11,14,14,15,19,8,16,5,7,13,17,9,10,15,7,5,9,34,33,14,8,12,27,12,10,17,23,6,12,15,6,10,25,22,10,6,18,5,12,8,17,12,16,21,23,14,9,14,3,7,10,14,21,17,12,18,13,11,19,22,15,13,8,10,7,10,12,23,12,19,10,19,17,15,7,10,7,11,15,34,5
37,13,8,7,14,9,30,19,17,9,1,14,13,6,8,13,20,16,12,13,9,13,18,10,13,14,13,10,4,8,11,20,13,15,11,7,5,9,28,22,10,9,7,21,11,14,15,16,7,9,13,7,5,24,23,8,7,10,5,15,12,17,12,12,28,23,8,11,15,3,3,16,15,19,17,9,10,11,8,14,23,11,13,9,8,9,15,12,16,15,20,16,13,15,6,7,8,8,13,13,28,5
38,14,8,5,12,8,21,19,22,11,3,10,19,8,9,9,20,17,10,14,10,8,11,9,15,17,10,12,3,5,8,13,19,9,12,9,6,10,32,19,13,11,8,16,8,10,9,20,5,9,10,9,7,16,12,9,6,8,7,10,14,17,15,17,16,24,9,10,12,5,1,13,12,19,17,9,8,8,8,17,12,12,14,10,9,11,9,15,17,10,20,13,19,9,8,5,9,5,8,15,32,7
39,15,9,7,15,11,28,28,25,12,3,9,18,7,6,17,19,18,15,9,8,8,12,16,12,18,10,12,4,6,15,13,14,6,13,8,3,8,28,27,8,8,11,20,16,15,13,13,7,8,10,7,6,15,12,9,7,12,2,11,6,17,9,28,21,17,11,10,13,8,4,13,13,28,17,8,12,15,9,18,12,13,9,8,9,12,6,9,18,11,19,13,18,13,7,7,6,6,8,12,28,2
40,16,10,6,9,8,22,22,25,10,1,10,15,9,8,11,23,21,12,14,11,7,12,12,14,21,8,11,4,7,8,16,11,10,13,6,5,10,26,24,16,12,7,18,13,13,10,24,6,6,11,6,4,18,13,8,5,10,3,7,7,13,16,23,19,18,8,10,11,7,3,12,11,22,13,6,10,8,10,21,13,13,14,11,8,10,10,16,21,7,23,12,15,10,9,6,8,7,7,14,26,3
41,17,13,7,11,7,25,26,26,13,1,8,18,9,7,13,15,26,9,14,13,11,18,19,12,17,9,14,5,6,11,12,10,13,8,10,3,12,40,28,8,11,10,16,12,12,18,24,6,14,9,9,7,19,22,9,5,13,6,9,7,14,11,14,25,26,13,10,8,3,8,12,8,26,14,14,13,11,13,17,22,8,14,13,9,13,13,11,26,9,15,12,18,18,9,7,7,6,11,12,40,6
42,18,12,4,17,10,24,29,21,7,0,3,21,8,3,28,22,30,14,19,7,12,16,15,15,28,11,14,0,8,9,26,13,14,14,8,5,9,37,23,13,12,7,24,15,13,16,22,5,9,10,7,4,38,26,5,5,13,2,14,6,10,12,15,25,27,6,11,12,2,2,17,12,29,10,9,13,9,12,28,26,14,19,7,5,7,14,12,30,14,22,17,21,16,8,4,3,8,12,15,37,2
43,19,8,6,9,9,23,24,23,7,0,9,15,12,6,12,19,20,11,18,11,12,14,17,15,20,10,14,5,7,17,12,10,12,10,10,5,15,35,25,18,12,7,19,15,7,20,25,6,11,8,7,6,20,17,8,4,12,4,11,8,19,17,24,30,29,12,8,17,4,5,12,17,24,19,11,12,17,8,20,17,10,18,11,8,7,12,17,20,11,19,12,15,20,12,6,6,7,12,15,35,4
44,20,7,6,12,7,24,20,21,8,1,10,17,9,3,18,13,15,12,8,7,11,11,14,9,15,7,11,4,7,12,29,12,15,10,7,6,12,29,19,12,8,7,32,13,10,13,16,3,9,10,6,3,34,19,5,5,7,1,13,7,15,11,15,20,17,9,11,16,3,1,14,16,20,15,9,7,12,7,15,19,10,8,7,5,8,15,11,15,13,13,14,17,13,9,6,3,7,11,9,29,1
45,21,7,5,8,8,10,21,15,6,1,11,9,9,2,9,12,17,14,15,3,5,10,10,7,15,6,11,1,10,15,11,11,9,10,7,2,11,30,11,11,8,7,17,10,13,14,11,7,7,6,6,7,16,22,7,5,7,0,18,7,17,12,15,13,19,8,8,11,3,3,8,11,21,17,7,7,15,7,15,22,10,15,3,7,6,9,12,17,18,12,8,9,14,9,5,2,10,5,7,30,0
46,22,4,4,6,5,17,19,17,4,0,6,12,7,1,12,15,9,11,10,5,8,8,9,9,14,6,10,3,2,15,10,7,9,7,7,4,9,21,12,11,5,4,11,8,5,13,15,4,7,6,6,2,10,11,4,4,6,2,10,6,9,7,9,10,17,6,7,9,1,2,7,9,19,9,7,6,15,4,14,11,7,10,5,4,4,9,7,9,10,15,7,12,13,7,4,1,2,8,9,21,2
47,23,4,2,5,1,6,5,9,5,0,2,10,3,0,6,8,5,10,3,3,5,7,7,8,7,3,4,4,2,7,3,5,4,4,10,1,3,15,8,4,4,1,8,6,4,9,8,2,5,3,6,0,4,9,0,1,4,1,8,2,7,6,5,7,7,2,5,7,1,0,5,7,5,7,5,4,7,4,7,9,4,3,3,0,5,4,6,5,8,8,5,10,9,3,2,0,2,5,8,15,1
